Chapter 10 Data import and consolidation | Data Science with R
…
# Once imported we can remove the file if we wish
file.remove("murders.csv")
#> [1] TRUE

We see how by default it detects the headers in the first row and assigns them a default data type. Let’s now explore our data_df object.

data_df
#> # A tibble: 51 × 5
#>    state                abb   region    population total
#>    <chr>                <chr> <chr>          <dbl> <dbl>
#>  1 Alabama              AL    South        4779736   135
#>  2 Alaska               AK    West          710231    19
#>  3 Arizona              AZ    West         6392017   232
#>  4 Arkansas             AR    South        2915918    93
#>  5 California           CA    West        37253956  1257
#>  6 Colorado             CO    West         5029196    65
#>  7 Connecticut          CT    Northeast    3574097    97
#>  8 Delaware             DE    South         897934    38
#>  9 District of Columbia DC    South         601723    99
#> 10 Florida              FL    South       19687653   669
#> # ℹ 41 more rows
…
We see that the original data had two rows, one per country and then each column represented a year. This is what we call wide data or wide data. Normally we will have wide data that we first have to convert to tidy data to later be able to perform our analyses.

10.2.1 Transforming to tidy data

The tidyverse library provides two functions to reshape data between wide and long (tidy) formats. We use pivot_longer() to convert from wide data to tidy data and pivot_wider() to convert from tidy data to wide data.

10.2.1.1 pivot_longer function

Let’s see the utility with the wide_data object that we created in the previous section as a result of importing data from the csv. First apply the pivot_longer() function to explore the conversion that is performed by default.

tidy_data <- wide_data |>
  pivot_longer(cols = -country, names_to = "key", values_to = "value")

tidy_data
#> # A tibble: 112 × 3
#>    country key   value
#>    <chr>   <chr> <dbl>
#>  1 Germany 1960   2.41
#>  2 Germany 1961   2.44
#>  3 Germany 1962   2.47
#>  4 Germany 1963   2.49
#>  5 Germany 1964   2.49
#>  6 Germany 1965   2.48
#>  7 Germany 1966   2.44
#>  8 Germany 1967   2.37
#>  9 Germany 1968   2.28
#> 10 Germany 1969   2.17
#> # ℹ 102 more rows

We see how the pivot_longer() function has collected the columns into two, the names column (“key”) and the values column (“value”). We can change the title of these new columns, for example “year” and “fertility”.

tidy_data <- wide_data |>
  pivot_longer(cols = -country, names_to = "year", values_to = "fertility")

tidy_data
#> # A tibble: 112 × 3
#>    country year  fertility
#>    <chr>   <chr>     <dbl>
#>  1 Germany 1960       2.41
#>  2 Germany 1961       2.44
#>  3 Germany 1962       2.47
#>  4 Germany 1963       2.49
#>  5 Germany 1964       2.49
#>  6 Germany 1965       2.48
#>  7 Germany 1966       2.44
#>  8 Germany 1967       2.37
#>  9 Germany 1968       2.28
#> 10 Germany 1969       2.17
#> # ℹ 102 more rows

We use cols = -country to exclude the country column from being pivoted. By default the column names are collected as text. To convert them to numbers we use the names_transform argument.

tidy_data <- wide_data |>
  pivot_longer(cols = -country, names_to = "year", values_to = "fertility",
               names_transform = list(year = as.integer))

tidy_data
#> # A tibble: 112 × 3
#>    country  year fertility
#>    <chr>   <int>     <dbl>
#>  1 Germany  1960      2.41
#>  2 Germany  1961      2.44
#>  3 Germany  1962      2.47
#>  4 Germany  1963      2.49
#>  5 Germany  1964      2.49
#>  6 Germany  1965      2.48
#>  7 Germany  1966      2.44
#>  8 Germany  1967      2.37
#>  9 Germany  1968      2.28
#> 10 Germany  1969      2.17
#> # ℹ 102 more rows
…
data |> 
  select(1:5) #Report first 5 columns
#> # A tibble: 2 × 5
#>   country     `1960_fertility` `1960_life_expectancy` `1961_fertility`
#>   <chr>                  <dbl>                  <dbl>            <dbl>
#> 1 Germany                 2.41                   69.3             2.44
#> 2 South Korea             6.16                   53.0             5.99
#> # ℹ 1 more variable: `1961_life_expectancy` <dbl>

If we apply pivot_longer() directly we would not have our data ordered yet. Let’s see:

data |> 
  pivot_longer(cols = -country, names_to = "key_col", values_to = "value_col")
#> # A tibble: 224 × 3
#>    country key_col              value_col
#>    <chr>   <chr>                    <dbl>
#>  1 Germany 1960_fertility            2.41
#>  2 Germany 1960_life_expectancy     69.3 
#>  3 Germany 1961_fertility            2.44
#>  4 Germany 1961_life_expectancy     69.8 
#>  5 Germany 1962_fertility            2.47
#>  6 Germany 1962_life_expectancy     70.0 
#>  7 Germany 1963_fertility            2.49
#>  8 Germany 1963_life_expectancy     70.1 
#>  9 Germany 1964_fertility            2.49
#> 10 Germany 1964_life_expectancy     70.7 
#> # ℹ 214 more rows

We will use the separate() function to separate a column into multiple columns using a specific separator. In this case our separator would be the character _. Also, we will add the attribute extra="merge" to indicate that if there is more than one separator character, do not separate them and keep them joined.

data |> 
  pivot_longer(cols = -country, names_to = "key_col", values_to = "value_col") |> 
  separate(key_col, c("año", "other_var"), sep="_", extra = "merge")
#> # A tibble: 224 × 4
#>    country año   other_var       value_col
#>    <chr>   <chr> <chr>               <dbl>
#>  1 Germany 1960  fertility            2.41
#>  2 Germany 1960  life_expectancy     69.3 
#>  3 Germany 1961  fertility            2.44
#>  4 Germany 1961  life_expectancy     69.8 
#>  5 Germany 1962  fertility            2.47
#>  6 Germany 1962  life_expectancy     70.0 
#>  7 Germany 1963  fertility            2.49
#>  8 Germany 1963  life_expectancy     70.1 
#>  9 Germany 1964  fertility            2.49
#> 10 Germany 1964  life_expectancy     70.7 
#> # ℹ 214 more rows

We already have the year separated, but this data is still not tidy data since there is a row for fertility and a row for life expectancy for each country. We have to pass these values from row to columns. And for that we already learned that we can use the pivot_wider() function

data |> 
  pivot_longer(cols = -country, names_to = "key_col", values_to = "value_col") |> 
  separate(key_col, c("año", "other_var"), sep="_", extra = "merge") |> 
  pivot_wider(names_from = other_var, values_from = value_col)
#> # A tibble: 112 × 4
#>    country año   fertility life_expectancy
#>    <chr>   <chr>     <dbl>           <dbl>
#>  1 Germany 1960       2.41            69.3
#>  2 Germany 1961       2.44            69.8
#>  3 Germany 1962       2.47            70.0
#>  4 Germany 1963       2.49            70.1
#>  5 Germany 1964       2.49            70.7
#>  6 Germany 1965       2.48            70.6
#>  7 Germany 1966       2.44            70.8
#>  8 Germany 1967       2.37            71.0
#>  9 Germany 1968       2.28            70.6
#> 10 Germany 1969       2.17            70.5
#> # ℹ 102 more rows
…
