Chapter 3 Data Frames | Data Science with R
…
# Import data from a CSV file called "student-grades.csv"
grades <- read_csv(url)
#> Rows: 21 Columns: 9
#> ── Column specification ─────────────────────────────
#> Delimiter: ","
#> chr (3): start_date, gender, type
#> dbl (6): P1, P2, P3, P4, P5, P6
#> 
#> ℹ Use `spec()` to retrieve the full column specification for this data.
#> ℹ Specify the column types or set `show_col_types = FALSE` to quiet this message.

grades
#> # A tibble: 21 × 9
#>    start_date gender type                 P1    P2    P3    P4    P5    P6
#>    <chr>      <chr>  <chr>             <dbl> <dbl> <dbl> <dbl> <dbl> <dbl>
#>  1 03/05/2020 female Individual Work 1     5     5     5     5     5     5
#>  2 03/05/2020 male   Individual Work 1     5     5     5     5     4     5
#>  3 03/05/2020 female Individual Work 1     5     5     4     5     5     5
#>  4 03/05/2020 male   Individual Work 1     5     5     5     5     5     5
#>  5 03/05/2020 male   Individual Work 1     2     5     5     5     5     5
#>  6 03/05/2020 male   Individual Work 1     5     4     5     1     5     5
#>  7 03/05/2020 male   Individual Work 1     2     1     5     5     2     5
#>  8 03/05/2020 male   Individual Work 1     5     5     5     5     5     5
#>  9 03/05/2020 male   Individual Work 1     4     5     5     5     5     5
#> 10 03/05/2020 male   Individual Work 1     3     4     5     5     5     5
#> # ℹ 11 more rows
```
…
