Chapter 11 Supervised Learning | Data Science with R
…
We see that it gives us the RMSE and an R squared quite closer to 1, which denotes a high quality of the model to replicate the results.

Let’s use our model to predict the prices of the test data.

# Fit final model
diamonds_fit <- fit(diamonds_workflow, data = diamonds_train)

# Extract coefficients
diamonds_fit |> extract_fit_parsnip() |> tidy()
#> # A tibble: 24 × 5
#>    term        estimate std.error statistic   p.value
#>    <chr>          <dbl>     <dbl>     <dbl>     <dbl>
#>  1 (Intercept)   6975.      473.      14.7  5.45e- 49
#>  2 carat        11437.       60.7    188.   0        
#>  3 cut.L          571.       27.1     21.1  7.51e- 98
#>  4 cut.Q         -305.       21.7    -14.0  1.07e- 44
#>  5 cut.C          139.       18.6      7.48 7.72e- 14
#>  6 cut^4          -23.2      14.8     -1.56 1.18e-  1
#>  7 color.L      -1980.       20.8    -95.1  0        
#>  8 color.Q       -685.       19.0    -36.1  6.69e-281
#>  9 color.C       -186.       17.7    -10.5  6.23e- 26
#> 10 color^4         36.8      16.2      2.27 2.33e-  2
#> # ℹ 14 more rows
…
