Chapter 12 Unsupervised Learning | Data Science with R
…
Again, we get that the recommended number of clusters is 2. Let’s create the model for k = 2 and store the resulting cluster.

model <- kmeans(customers_scaled, centers = 2)

customers_grouped <- customers_filtered |> 
                        mutate(cluster = model$cluster)

customers_grouped
#> # A tibble: 440 × 4
#>     Milk Grocery Frozen cluster
#>    <dbl>   <dbl>  <dbl>   <int>
#>  1  9656    7561    214       1
#>  2  9810    9568   1762       1
#>  3  8808    7684   2405       1
#>  4  1196    4221   6404       1
#>  5  5410    7198   3915       1
#>  6  8259    5126    666       1
#>  7  3199    6975    480       1
#>  8  4956    9426   1669       1
#>  9  3648    6192    425       1
#> 10 11093   18881   1159       1
#> # ℹ 430 more rows
…
